<svg xmlns="http://www.w3.org/2000/svg" xmlns:xlink="http://www.w3.org/1999/xlink" viewBox="0 0 22.613 11.5">
  <defs>
    <style>
      .cls-1, .cls-3 {
        fill: none;
      }

      .cls-1 {
        clip-rule: evenodd;
      }

      .cls-2 {
        clip-path: url(#clip-path);
      }

      .cls-3 {
        stroke: rgba(0,0,0,0.47);
        stroke-width: 2px;
      }

      .cls-4 {
        clip-path: url(#clip-path-2);
      }

      .cls-5 {
        fill: rgba(0,0,0,0.58);
      }

      .cls-6 {
        clip-path: url(#clip-path-3);
      }
    </style>
    <clipPath id="clip-path">
      <path id="Path_728" data-name="Path 728" class="cls-1" d="M0-9.5A2.339,2.339,0,0,1,2.134-12H18.346A2.34,2.34,0,0,1,20.48-9.5V-3A2.333,2.333,0,0,1,18.342-.5H2.125A2.337,2.337,0,0,1,0-3Z" transform="translate(0 12)"/>
    </clipPath>
    <clipPath id="clip-path-2">
      <path id="Path_730" data-name="Path 730" class="cls-1" d="M25-8.372A2.257,2.257,0,0,1,26.28-6.25,2.257,2.257,0,0,1,25-4.128Z" transform="translate(-25 8.372)"/>
    </clipPath>
    <clipPath id="clip-path-3">
      <path id="Path_732" data-name="Path 732" class="cls-1" d="M2-9a.937.937,0,0,1,.846-1H18.22a.931.931,0,0,1,.846,1V-3.5a.937.937,0,0,1-.846,1H2.846A.931.931,0,0,1,2-3.5Z" transform="translate(-2 10)"/>
    </clipPath>
  </defs>
  <g id="Battery" transform="translate(0)">
    <g id="Battery_Outline" data-name="Battery Outline" class="cls-2">
      <g id="Group_277" data-name="Group 277">
        <path id="Path_727" data-name="Path 727" class="cls-3" d="M0,2.5A2.339,2.339,0,0,1,2.134,0H18.346A2.34,2.34,0,0,1,20.48,2.5V9a2.333,2.333,0,0,1-2.138,2.5H2.125A2.337,2.337,0,0,1,0,9Z"/>
      </g>
    </g>
    <g id="Cap" class="cls-4" transform="translate(21.333 3.628)">
      <path id="Path_729" data-name="Path 729" class="cls-5" d="M20,.872h9.813V-13.372H20Z" transform="translate(-24.267 8.372)"/>
    </g>
    <g id="Battery_Fill" data-name="Battery Fill" class="cls-6" transform="translate(1.707 2)">
      <path id="Path_731" data-name="Path 731" d="M-3,2.5H22.6V-15H-3Z" transform="translate(-1.267 10)"/>
    </g>
  </g>
</svg>
