<svg xmlns="http://www.w3.org/2000/svg" viewBox="0 0 5.973 12">
  <defs>
    <style>
      .cls-1 {
        fill-rule: evenodd;
      }
    </style>
  </defs>
  <path id="Bluetooth" class="cls-1" d="M293.06-12l3.413,3.5L294.127-6l2.347,2.5L293.06,0V-4.751L291.14-2.5l-.64-.75L292.847-6,290.5-8.75l.64-.75,1.92,2.25Zm.853,2.37V-7l1.28-1.4Zm0,4.63v2.75l1.28-1.291Z" transform="translate(-290.5 12)"/>
</svg>
