<svg xmlns="http://www.w3.org/2000/svg" viewBox="0 0 16 16">
  <defs>
    <style>
      .cls-1 {
        fill: #fff;
      }

      .cls-1, .cls-2 {
        stroke: #000;
      }

      .cls-3 {
        stroke: none;
      }

      .cls-4 {
        fill: none;
      }
    </style>
  </defs>
  <g id="Group_1175" data-name="Group 1175" transform="translate(-265 -306)">
    <g id="Ellipse_8" data-name="Ellipse 8" class="cls-1" transform="translate(265 306)">
      <circle class="cls-3" cx="8" cy="8" r="8"/>
      <circle class="cls-4" cx="8" cy="8" r="7.5"/>
    </g>
    <g id="Ellipse_81" data-name="Ellipse 81" class="cls-2" transform="translate(270 311)">
      <circle class="cls-3" cx="3" cy="3" r="3"/>
      <circle class="cls-4" cx="3" cy="3" r="2.5"/>
    </g>
  </g>
</svg>
