<svg xmlns="http://www.w3.org/2000/svg" xmlns:xlink="http://www.w3.org/1999/xlink" viewBox="0 0 63.117 94.868">
  <defs>
    <style>
      .cls-1 {
        fill: #5773ff;
      }

      .cls-2 {
        fill: rgba(0,0,0,0.48);
      }

      .cls-3 {
        opacity: 0.401;
        fill: url(#linear-gradient);
      }

      .cls-4 {
        filter: url(#Path_734);
      }
    </style>
    <filter id="Path_734" x="21.452" y="49.832" width="32.214" height="45.036" filterUnits="userSpaceOnUse">
      <feOffset dx="6" dy="3" input="SourceAlpha"/>
      <feGaussianBlur stdDeviation="3" result="blur"/>
      <feFlood flood-color="#142f60" flood-opacity="0.639"/>
      <feComposite operator="in" in2="blur"/>
      <feComposite in="SourceGraphic"/>
    </filter>
    <linearGradient id="linear-gradient" x1="0.065" y1="0.072" x2="0.5" y2="0.5" gradientUnits="objectBoundingBox">
      <stop offset="0" stop-color="#78849e" stop-opacity="0.698"/>
      <stop offset="1" stop-color="#3497fd" stop-opacity="0"/>
    </linearGradient>
  </defs>
  <g id="Group_1190" data-name="Group 1190" transform="translate(-118.674 -244.865)">
    <g id="car-yellow" transform="matrix(0.999, -0.035, 0.035, 0.999, 143.126, 301.16)">
      <g class="cls-4" transform="matrix(1, 0.03, -0.03, 1, -22.47, -57.11)">
        <path id="Path_734-2" data-name="Path 734" class="cls-1" d="M4.431,0H8.863a4.431,4.431,0,0,1,4.431,4.431V22.157a4.431,4.431,0,0,1-4.431,4.431H4.431A4.431,4.431,0,0,1,0,22.157V4.431A4.431,4.431,0,0,1,4.431,0Z" transform="translate(24.45 56.3) rotate(-2)"/>
      </g>
      <rect id="Rectangle_74" data-name="Rectangle 74" class="cls-2" width="11.078" height="16.617" rx="5.539" transform="translate(1.079 6.647)"/>
      <rect id="Rectangle_75" data-name="Rectangle 75" class="cls-1" width="8.863" height="9.97" rx="4.431" transform="translate(2.158 11.632)"/>
    </g>
    <path id="radar" class="cls-3" d="M10,0h34.52L0,44.75V9.922Z" transform="matrix(-0.695, -0.719, 0.719, -0.695, 149.601, 307.976)"/>
  </g>
</svg>
