<svg xmlns="http://www.w3.org/2000/svg" xmlns:xlink="http://www.w3.org/1999/xlink" viewBox="0 0 63 63">
  <defs>
    <style>
      .cls-1 {
        fill: #fff;
      }

      .cls-2, .cls-3 {
        fill: none;
        stroke-linecap: round;
        stroke-linejoin: round;
        stroke-width: 2px;
      }

      .cls-2 {
        stroke: #454f63;
      }

      .cls-3 {
        stroke: #00c569;
      }

      .cls-4 {
        filter: url(#Path_736);
      }
    </style>
    <filter id="Path_736" x="0" y="0" width="63" height="63" filterUnits="userSpaceOnUse">
      <feOffset dy="3" input="SourceAlpha"/>
      <feGaussianBlur stdDeviation="3" result="blur"/>
      <feFlood flood-opacity="0.161"/>
      <feComposite operator="in" in2="blur"/>
      <feComposite in="SourceGraphic"/>
    </filter>
  </defs>
  <g id="_0011Menu" data-name="#0011Menu" transform="translate(175 916)">
    <g class="cls-4" transform="matrix(1, 0, 0, 1, -175, -916)">
      <path id="Path_736-2" data-name="Path 736" class="cls-1" d="M22.5,0A22.5,22.5,0,1,1,0,22.5,22.5,22.5,0,0,1,22.5,0Z" transform="translate(9 6)"/>
    </g>
    <g id="menu" transform="translate(-155 -899)">
      <line id="Line_27" data-name="Line 27" class="cls-2" x2="18" transform="translate(3 12)"/>
      <line id="Line_28" data-name="Line 28" class="cls-2" x2="18" transform="translate(3 6)"/>
      <line id="Line_29" data-name="Line 29" class="cls-3" x2="13" transform="translate(3 18)"/>
    </g>
  </g>
</svg>
