<svg xmlns="http://www.w3.org/2000/svg" viewBox="0 0 310 100">
  <defs>
    <style>
      .cls-1 {
        fill: #f3f3f3;
      }
    </style>
  </defs>
  <rect id="Rectangle_555" data-name="Rectangle 555" class="cls-1" width="310" height="100"/>
</svg>
