<svg xmlns="http://www.w3.org/2000/svg" xmlns:xlink="http://www.w3.org/1999/xlink" viewBox="0 0 257.335 139.841">
  <defs>
    <style>
      .cls-1 {
        fill: none;
        stroke: #9b9a9b;
        stroke-width: 7px;
      }

      .cls-2 {
        filter: url(#Road3);
      }
    </style>
    <filter id="Road3" x="0" y="0" width="257.335" height="139.841" filterUnits="userSpaceOnUse">
      <feOffset dy="3" input="SourceAlpha"/>
      <feGaussianBlur stdDeviation="3" result="blur"/>
      <feFlood flood-opacity="0.161"/>
      <feComposite operator="in" in2="blur"/>
      <feComposite in="SourceGraphic"/>
    </filter>
  </defs>
  <g class="cls-2" transform="matrix(1, 0, 0, 1, 0, 0)">
    <path id="Road3-2" data-name="Road3" class="cls-1" d="M1903.106,316.908s1.125-3.591,1.21-4.4-2.319-3.972-3.27-5-6.224-4.468-7.943-5.7-5.172-9.065-5.519-10.6-6.611-5.451-6.921-7-3.464-15.229-4.529-16.653-30.516-18.282-32.338-20.309-3.127-6.107-4.678-8.146-2.587-2.077-4.187-3.887-15.621-33.541-17.037-34.742-2.506-1.276-4.975,0-35.285,23.762-39.18,26.7.329,5.512-2.678,8.043-29.557,21.066-29.557,21.066l-7.229,5.178L1713.964,277.6s-18.309,10.966-20.545,12.574c-1.314.514-3.752.524-4.173,0-2.3-2.863-4.417-.825-7.449-3.287s-11.4-32.033-9.777-34.312,17.227-5.336,17.227-5.336" transform="translate(-1659.48 -190.11)"/>
  </g>
</svg>
