<svg id="Glyphs_Search_Bar_Search" data-name="Glyphs / Search Bar / Search" xmlns="http://www.w3.org/2000/svg" viewBox="0 0 14 14">
  <defs>
    <style>
      .cls-1 {
        fill: none;
      }

      .cls-1, .cls-2 {
        fill-rule: evenodd;
      }

      .cls-2 {
        fill: #8e8e93;
      }
    </style>
  </defs>
  <path id="Bounds" class="cls-1" d="M0,0H14V14H0Z"/>
  <path id="Search" class="cls-2" d="M7.861,8.861l-.489.361A3.607,3.607,0,0,1,5,10,4,4,0,1,1,9,6a3.606,3.606,0,0,1-.779,2.372l-.361.489Zm3.968,5.028L7.965,10.026A5,5,0,1,1,9.026,8.966l3.156,3.156.707.707-.707.707-.354.354Z"/>
</svg>
