<svg xmlns="http://www.w3.org/2000/svg" xmlns:xlink="http://www.w3.org/1999/xlink" viewBox="0 0 65 65">
  <defs>
    <style>
      .cls-1, .cls-2 {
        fill: #fff;
      }

      .cls-1 {
        opacity: 0.502;
      }

      .cls-2 {
        stroke: #3393fc;
        stroke-linecap: round;
        stroke-linejoin: round;
        stroke-width: 2px;
      }

      .cls-3 {
        fill: none;
        stroke: #3291fb;
      }

      .cls-4 {
        filter: url(#Path_736);
      }
    </style>
    <filter id="Path_736" x="0" y="0" width="65" height="65" filterUnits="userSpaceOnUse">
      <feOffset dy="3" input="SourceAlpha"/>
      <feGaussianBlur stdDeviation="3" result="blur"/>
      <feFlood flood-color="#606d88" flood-opacity="0.749"/>
      <feComposite operator="in" in2="blur"/>
      <feComposite in="SourceGraphic"/>
    </filter>
  </defs>
  <g id="Symbol_120_3" data-name="Symbol 120 – 3" transform="translate(-257.751 -327.483)">
    <g class="cls-4" transform="matrix(1, 0, 0, 1, 257.75, 327.48)">
      <path id="Path_736-2" data-name="Path 736" class="cls-1" d="M23.5,0A23.5,23.5,0,1,1,0,23.5,23.5,23.5,0,0,1,23.5,0Z" transform="translate(9 6)"/>
    </g>
    <g id="Иллюстрация_10" data-name="Иллюстрация 10" transform="translate(298.5 484)">
      <path id="Path_1202" data-name="Path 1202" class="cls-2" d="M8.973,0l8.973,24.355L8.973,17.609,0,24.355Z" transform="translate(-17 -139.5)"/>
    </g>
    <path id="Path_1228" data-name="Path 1228" class="cls-3" d="M0,0C0-2.5,0,9.337,0,6" transform="translate(290.5 367.5)"/>
  </g>
</svg>
