<svg xmlns="http://www.w3.org/2000/svg" viewBox="0 0 14.285 10">
  <defs>
    <style>
      .cls-1 {
        stroke: #000;
        stroke-linecap: round;
        stroke-linejoin: round;
      }
    </style>
  </defs>
  <path id="Wifi" class="cls-1" d="M0,2.491a10.1,10.1,0,0,1,13.285,0l-.9.885A8.808,8.808,0,0,0,.9,3.376ZM2.441,4.883a6.608,6.608,0,0,1,8.4,0l-.9.882a5.314,5.314,0,0,0-6.6,0ZM4.986,7.377a2.985,2.985,0,0,1,3.313,0L6.643,9Z" transform="translate(0.5 0.5)"/>
</svg>
