<svg xmlns="http://www.w3.org/2000/svg" viewBox="0 0 111 16">
  <defs>
    <style>
      .cls-1 {
        fill: #007aff;
        font-size: 14px;
        font-family: Roboto-Regular, Roboto;
      }
    </style>
  </defs>
  <text id="Указать_на_карте" data-name="Указать на карте" class="cls-1" transform="translate(0 13)"><tspan x="0" y="0">Указать на карте</tspan></text>
</svg>
